[  
    {
        "number": 1, 
        "id": "def@gmail.com", 
        "text": "The next generation of DOES."
    }, 
    {
        "number": 3, 
        "id": "abc@gmail.com", 
        "text": "An experience to cheer about."
    }, 
    {
        "number": 5, 
        "id": "xyz@gmail.com", 
        "text": "Are you ready for everything life throws your way?"
    }, 
    {
        "number": 7, 
        "id": "def@gmail.com", 
        "text": "The T-Mobile myTouch 4G is a premium smartphone designed to deliver blazing fast 4G speeds so that you can video chat from practically anywhere, with or without Wi-Fi."
    }, 
    {
        "number": 9, 
        "id": "xyz@gmail.com", 
        "text": "The Samsung Mesmerize\u2122 delivers a cinema quality experience like you\u2019ve never seen before. Its innovative 4\u201d touch display technology provides rich picture brilliance,even outdoors"
    },
    {
        "number": 10, 
        "id": "abc@gmail.com", 
        "text": "The Sanyo Zio by Kyocera is an Android smartphone with a combination of ultra-sleek styling, strong performance and unprecedented value."
    }, 
    {
        "number": 12, 
        "id": "def@gmail.com", 
        "text": "The Samsung Transform\u2122 brings you a fun way to customize your Android powered touch screen phone to just the way you like it through your favorite themed \u201cSprint ID Service Pack\u201d."
    }, 
    {
        "number": 14, 
        "id": "xyz@gmail.com", 
        "text": "The T-Mobile G2 with Google is the first smartphone built for 4G speeds on T-Mobile's new network. Get the information you need, faster than you ever thought possible."
    }, 
    {
        "number": 16, 
        "id": "abc@gmail.com", 
        "text": "Motorola CHARM fits easily in your pocket or palm.  Includes MOTOBLUR service."
    }
    
]
